<define-tag pagetitle>DLA-970-1 sudo</define-tag>
<define-tag report_date>2017-5-30</define-tag>
<define-tag secrefs>CVE-2017-1000367 Bug#863731</define-tag>
<define-tag packages>sudo</define-tag>
<define-tag isvulnerable>yes</define-tag>
<define-tag fixed>yes</define-tag>
<define-tag fixed-section>no</define-tag>

#use wml::debian::security

