<define-tag pagetitle>DLA-1520-1 python3.4</define-tag>
<define-tag report_date>2018-9-26</define-tag>
<define-tag secrefs>CVE-2017-1000158 CVE-2018-1060 CVE-2018-1061 CVE-2018-1000802</define-tag>
<define-tag packages>python3.4</define-tag>
<define-tag isvulnerable>yes</define-tag>
<define-tag fixed>yes</define-tag>
<define-tag fixed-section>no</define-tag>

#use wml::debian::security

