<define-tag pagetitle>DLA-1491-1 tomcat8</define-tag>
<define-tag report_date>2018-9-2</define-tag>
<define-tag secrefs>CVE-2018-1336 CVE-2018-8034</define-tag>
<define-tag packages>tomcat8</define-tag>
<define-tag isvulnerable>yes</define-tag>
<define-tag fixed>yes</define-tag>
<define-tag fixed-section>no</define-tag>

#use wml::debian::security

