<define-tag pagetitle>DLA-1827-1 gvfs</define-tag>
<define-tag report_date>2019-6-19</define-tag>
<define-tag secrefs>CVE-2019-12795 Bug#930376</define-tag>
<define-tag packages>gvfs</define-tag>
<define-tag isvulnerable>yes</define-tag>
<define-tag fixed>yes</define-tag>
<define-tag fixed-section>no</define-tag>

#use wml::debian::security

