<define-tag pagetitle>DLA-1738-1 gpsd</define-tag>
<define-tag report_date>2019-3-30</define-tag>
<define-tag secrefs>CVE-2018-17937 Bug#925327</define-tag>
<define-tag packages>gpsd</define-tag>
<define-tag isvulnerable>yes</define-tag>
<define-tag fixed>yes</define-tag>
<define-tag fixed-section>no</define-tag>

#use wml::debian::security

